,taxon_id,taxon_rank,latin_name,english_name
82241,CK,class,Holocephali,
82242,X9,order,Chimaeriformes,
82243,7KV,family,Callorhinchidae,
82244,3FPT,genus,Callorhinchus,
82245,PVZB,species,Callorhinchus callorynchus,Elephant fish
82246,PVZC,species,Callorhinchus capensis,Cape elephantfish
82247,PVZD,species,Callorhinchus milii,Elephant fish
82248,84B,family,Chimaeridae,
82249,3N5N,genus,Chimaera,
82250,69S99,species,Chimaera argiloba,Whitefin chimarea
82251,5XS8Y,species,Chimaera bahamaensis,Bahamas ghost shark
82252,69RWY,species,Chimaera buccanigella,Dark-mouth Chimaera
82253,5XRWZ,species,Chimaera carophila,Brown chimaera
82254,5Y48Z,species,Chimaera cubana,Chimaera
82255,69S8Z,species,Chimaera didierae,The Falkor chimaera
82256,5XS9F,species,Chimaera fulva,Southern chimaera
82257,5Y49F,species,Chimaera jordani,
82258,69RXF,species,Chimaera lignaria,Carpenter's chimaera
82259,69S9F,species,Chimaera macrospina,Longspine chimaera
82260,5XRXH,species,Chimaera monstrosa,Chimaera
82261,5Y3XH,species,Chimaera notafricana,Cape chimaera
82262,69S9H,species,Chimaera obscura,Shortspine chimaera
82263,5XS9B,species,Chimaera opalescens,Opal chimaera
82264,5Y3XB,species,Chimaera orientalis,Eastern Pacific black chimaera
82265,5Y49B,species,Chimaera owstoni,
82266,69RXB,species,Chimaera panthera,
82267,69S9B,species,Chimaera phantasma,Chimaera
82268,5Y3XD,species,Chimaera willwatchi,Seafarer’s ghost shark
82269,4ZT9,genus,Hydrolagus,
82270,6MK26,species,Hydrolagus affinis,Atlantic chimaera
82271,6MJPX,species,Hydrolagus africanus,African chimaera
82272,6MJQ9,species,Hydrolagus alberti,
82273,6MK29,species,Hydrolagus alphus,
82274,6MJPW,species,Hydrolagus barbouri,
82275,6MJQ8,species,Hydrolagus bemisi,Pale ghost shark
82276,6MK28,species,Hydrolagus colliei,Angel fish
82277,6MJPR,species,Hydrolagus deani,Philippine chimaera
82278,6MJQ3,species,Hydrolagus eidolon,
82279,6MK23,species,Hydrolagus erithacus,Robin’s ghostshark
82280,6MJPQ,species,Hydrolagus homonycteris,Black ghost shark
82281,6MJQ2,species,Hydrolagus lemures,Bight ghostshark
82282,6MK22,species,Hydrolagus lusitanicus,
82283,6MJQ5,species,Hydrolagus macrophthalmus,Big eye chimaera
82284,3N7F2,species,Hydrolagus marmoratus,
82285,3N7F3,species,Hydrolagus matallanasi,Striped rabbitfish
82286,3N7F4,species,Hydrolagus mccoskeri,Galápagos Ghost Shark
82287,3N7F6,species,Hydrolagus melanophasma,Eastern Pacific Black Ghostshark
82288,3N7F7,species,Hydrolagus mirabilis,Large-eyed rabbitfish
82289,3N7F8,species,Hydrolagus mitsukurii,Ghost shark
82290,3N7F9,species,Hydrolagus novaezealandiae,Chimaera
82291,3N7FB,species,Hydrolagus ogilbyi,Ghostshark
82292,3N7FC,species,Hydrolagus pallidus,Ghost shark
82293,3N7FD,species,Hydrolagus purpurescens,Purple chimaera
82294,6MJPS,species,Hydrolagus trolli,Pointy-nosed blue chimaera
82295,3N7FG,species,Hydrolagus waitei,
82296,FNW,family,Rhinochimaeridae,
82297,62TT5,genus,Harriotta,
82298,6LFQD,species,Harriotta haeckeli,Pacific longnose chimaera
82299,6LFS7,species,Harriotta raleighana,Bentnose rabbitfish
82300,5ZLG,genus,Neoharriotta,
82301,46J3D,species,Neoharriotta carri,
82302,73W9S,species,Neoharriotta pinnata,Pacific longnose chimaera
82303,46J3F,species,Neoharriotta pumila,
82304,78NS,genus,Rhinochimaera,
82305,4S86C,species,Rhinochimaera africana,Paddlenose chimaera
82306,4S86D,species,Rhinochimaera atlantica,Atlantic knife-nose chimaera
